{
    "$schema": "https://go.kicad.org/pcm/schemas/v1",
    "name": "NextPCB Plug-in for KiCad",
    "description": "Start prototype and assembly by sending files to NextPCB with just one click.",
    "description_full": "Start prototype and assembly by sending files to NextPCB with just one click.",
    "identifier": "com.gitlab.nextpcbofficial.NextPCB-Plug-in-for-Kicad",
    "type": "plugin",
    "author": {
        "name": "NextPCB.com",
        "contact": {
            "web": "https://www.nextpcb.com"
        }
    },
    "maintainer": {
        "name": "NextPCB.com",
        "contact": {
            "web": "https://www.nextpcb.com"
        }
    },
    "license": "MIT",
    "resources": {
        "homepage": "https://gitlab.com/nextpcbofficial/NextPCB-Plug-in-for-Kicad"
    },
    "versions": [
        {
            "version": "0.0.2",
            "status": "testing",
            "kicad_version": "7.00",
            "install_size": 15039,
            "download_size": 9694,
            "download_sha256": "0dd8603e78a183fb47ab2a213d36c41f53a811c3608ba7e0b2d2c7f0f5e87c25",
            "download_url": "https://gitlab.com/nextpcbofficial/nextpcb-plug-in-for-kicad-files/-/raw/main/NextPCB-Plug-in-for-Kicad-v0.0.2.zip"
        }
    ]
}