{
    "$schema": "https://go.kicad.org/pcm/schemas/v1",
    "name": "impart GUI for KiCad",
    "description": "Import library files from Octopart, Samacsys, Ultralibrarian and Snapeda",
    "description_full": "Import library files from Octopart, Samacsys, Ultralibrarian and Snapeda.\n For usage and correct setup please read the Readme: \n https://github.com/Steffen-W/Import-LIB-KiCad-Plugin#use-of-the-application",
    "identifier": "com.github.Steffen-W.impartGUI",
    "type": "plugin",
    "author": {
        "name": "Steffen Wittemeier",
        "contact": {
            "github": "https://github.com/Steffen-W"
        }
    },
    "maintainer": {
        "name": "Steffen Wittemeier",
        "contact": {
            "github": "https://github.com/Steffen-W"
        }
    },
    "license": "GPL-3.0",
    "resources": {
        "homepage": "https://github.com/Steffen-W/Import-LIB-KiCad-Plugin"
    },
    "tags": [
        "import",
        "library",
        "octopart",
        "samacsys",
        "ultralibrarian",
        "snapeda"
    ],
    "versions": [
        {
            "version": "0.1.1",
            "status": "stable",
            "kicad_version": "6.00",
            "download_sha256": "bc042534930b3e117a4f25544c7d4cde3441004b763a0635412207906829b88f",
            "download_size": 25053,
            "download_url": "https://github.com/Steffen-W/Import-LIB-KiCad-Plugin/releases/download/v0.1.1/Import-LIB-KiCad-Plugin.zip",
            "install_size": 97762
        },
        {
            "version": "0.2.0",
            "status": "stable",
            "kicad_version": "6.00",
            "download_sha256": "9385284e93d21bdd9ed6e73f1afced97f688e6e9d22e40fe3776cb2b83ef201f",
            "download_size": 22407,
            "download_url": "https://github.com/Steffen-W/Import-LIB-KiCad-Plugin/releases/download/v0.2.0/Import-LIB-KiCad-Plugin.zip",
            "install_size": 52605
        },
        {
            "version": "0.3.0",
            "status": "stable",
            "kicad_version": "6.00",
            "download_sha256": "9850811d03e4c2bb3e84ec4f15dd31238600aa0b1481a8c4978319761da27e78",
            "download_size": 24870,
            "download_url": "https://github.com/Steffen-W/Import-LIB-KiCad-Plugin/releases/download/v0.3.0/Import-LIB-KiCad-Plugin.zip",
            "install_size": 57178
        }
    ]
}
